Pass details for CO-58 (orbit 39262)
Observer: ut, Tartu/Ulenurme, Estonia
LAT:58.30 LON:26.73
AOS: 2013/03/11 02:11:27 UTC
LOS: 2013/03/11 02:20:15 UTC
----------------------------------------
 Time                  Az      El   Dop 
----------------------------------------
 2013/03/11 02:11:27  70.20   0.00  1448
 2013/03/11 02:11:53  67.17   1.03  1355
 2013/03/11 02:12:20  63.89   2.02  1249
 2013/03/11 02:12:46  60.37   2.96  1132
 2013/03/11 02:13:13  56.59   3.84  1001
 2013/03/11 02:13:39  52.57   4.63   857
 2013/03/11 02:14:05  48.32   5.32   700
 2013/03/11 02:14:32  43.86   5.88   532
 2013/03/11 02:14:58  39.23   6.29   355
 2013/03/11 02:15:25  34.49   6.55   171
 2013/03/11 02:15:51  29.70   6.63   -16
 2013/03/11 02:16:17  24.90   6.54  -203
 2013/03/11 02:16:44  20.18   6.28  -386
 2013/03/11 02:17:10  15.58   5.86  -562
 2013/03/11 02:17:37  11.15   5.29  -728
 2013/03/11 02:18:03   6.94   4.60  -883
 2013/03/11 02:18:29   2.96   3.81 -1025
 2013/03/11 02:18:56 359.23   2.94 -1154
 2013/03/11 02:19:22 356.75   2.00 -1270
 2013/03/11 02:19:48 354.52   1.01 -1373
 2013/03/11 02:20:15 353.53   0.00 -1465
