[
    { 
        "label": "System",
        "url": "/MCS",
        "children": [
            {
                "label": "Components",
                "url": "/MCS/system/system.html",
                "tooltip": "Status of system components"
            },
            {
                "label": "Log",
                "url": "/MCS/system/log.html"
            },
            {
                "label": "Messages",
                "url": "/MCS/system/messages.html"
            },
            {
                "label": "Map",
                "url": "/MCS/system/map.html"
                
            },
            {
                "label": "Contact planning",
                "url": "/MCS/system/contact-planning.html"
            }
        ]
    },
    
    {
        "label": "Satellites",
        "url": "/MCS",
        "children": [
            {
                "label": "ESTCube-1",
                "url": "/MCS/satellites/ESTCube-1/",
                "children": [
                    {
                        "label": "Home",
                        "url": "/MCS/satellites/ESTCube-1/",
                        "tooltip": "ESTCube-1 Dashboard"
                    },
                    {
                        "type": "separator" 
                    },
                    {
                        "label": "COM",
                        "url": "/MCS/satellites/ESTCube-1/com.html",
                        "tooltip": "Communication System"
                    },
                    {
                        "label": "TCS",
                        "url": "/MCS/satellites/ESTCube-1/tcs.html",
                        "tooltip": "Thermal Control System"
                    },
                    {
                        "label": "CDHS",
                        "url": "/MCS/satellites/ESTCube-1/cdhs.html",
                        "tooltip": "Command and Data Handling System"
                    },
                    {
                        "label": "CAM",
                        "url": "/MCS/satellites/ESTCube-1/cam.html",
                        "tooltip": "Camera"
                    },
                    {
                        "label": "EPS",
                        "url": "/MCS/satellites/ESTCube-1/eps.html",
                        "tooltip": "Electrical Power System"
                    },
                    {
                        "label": "SYS",
                        "url": "/MCS/satellites/ESTCube-1/sys.html",
                        "tooltip": "Systems engineering"
                    },
                    {
                        "label": "ADCS",
                        "url": "/MCS/satellites/ESTCube-1/adcs.html",
                        "tooltip": "Attitude Determination and Control System"
                    },
                    {
                        "label": "Radio Beacon",
                        "url": "/MCS/satellites/ESTCube-1/beacon.html",
                        "tooltip": "Radio Beacon input"
                    },
                    {
                        "label": "TLE",
                        "url": "/MCS/satellites/ESTCube-1/tle.html",
                        "tooltip": "Two Line Element input"
                    },
                    {
                        "label": "Communication",
                        "url": "/MCS/satellites/ESTCube-1/communication.html",
                        "tooltip": "Satellite communication overview"
                    }
                ]
            },
            
            {
                "label": "ESTCube-1-FS",
                "url": "/MCS/satellites/ESTCube-1-FS/",
                "children": [
                    {
                        "label": "Home",
                        "url": "/MCS/satellites/ESTCube-1-FS/",
                        "tooltip": "ESTCube-1-FS Dashboard"
                    },
                    {
                        "type": "separator" 
                    },
                    {
                        "label": "COM",
                        "url": "/MCS/satellites/ESTCube-1-FS/com.html",
                        "tooltip": "Communication System"
                    },
                    {
                        "label": "TCS",
                        "url": "/MCS/satellites/ESTCube-1-FS/tcs.html",
                        "tooltip": "Thermal Control System"
                    },
                    {
                        "label": "CDHS",
                        "url": "/MCS/satellites/ESTCube-1-FS/cdhs.html",
                        "tooltip": "Command and Data Handling System"
                    },
                    {
                        "label": "CAM",
                        "url": "/MCS/satellites/ESTCube-1-FS/cam.html",
                        "tooltip": "Camera"
                    },
                    {
                        "label": "EPS",
                        "url": "/MCS/satellites/ESTCube-1-FS/eps.html",
                        "tooltip": "Electrical Power System"
                    },
                    {
                        "label": "SYS",
                        "url": "/MCS/satellites/ESTCube-1-FS/sys.html",
                        "tooltip": "Systems engineering"
                    },
                    {
                        "label": "ADCS",
                        "url": "/MCS/satellites/ESTCube-1-FS/adcs.html",
                        "tooltip": "Attitude Determination and Control System"
                    },
                    {
                        "label": "Radio Beacon",
                        "url": "/MCS/satellites/ESTCube-1-FS/beacon.html",
                        "tooltip": "Radio Beacon input"
                    },
                    {
                        "label": "TLE",
                        "url": "/MCS/satellites/ESTCube-1-FS/tle.html",
                        "tooltip": "Two Line Element input"
                    },
                    {
                        "label": "Communication",
                        "url": "/MCS/satellites/ESTCube-1-FS/communication.html",
                        "tooltip": "Satellite communication overview"
                    }
                ]
            }
        ]
    },
    
    {
        "label": "Ground Stations",
        "url": "/MCS",
        "children": [
            {
                "label": "ES5EC",
                "url": "/MCS/gs/ES5EC/",
                "children": [
                    {
                        "label": "Home",
                        "url": "/MCS/gs/ES5EC/",
                        "tooltip": "ES5EC Dashboard"
                    },
                    {
                        "type": "separator" 
                    },
                    {
                        "label": "Rotator",
                        "url": "/MCS/gs/ES5EC/rotator.html",
                        "tooltip": "Antenna rotator"
                    },
                    {
                        "label": "Radio",
                        "url": "/MCS/gs/ES5EC/radio.html",
                        "tooltip": "Radio device"
                    },
                    {
                        "label": "TNC",
                        "url": "/MCS/gs/ES5EC/tnc.html",
                        "tooltip": "Terminal Node Controller"
                    },
                    {
                        "label": "SDR",
                        "url": "/MCS/gs/ES5EC/sdr.html",
                        "tooltip": "Software Defined Radio"
                    },
                    {
                        "label": "Kadi",
                        "url": "/MCS/gs/ES5EC/kadi.html",
                        "tooltip": "Preselector"
                    },
                    {
                        "label": "Webcam",
                        "url": "/MCS/gs/ES5EC/cam.html",
                        "tooltip": "Web Camera"
                    },
                    {
                        "label": "Weather",
                        "url": "/MCS/gs/ES5EC/weather.html",
                        "tooltip": "Weather Information"
                    }
                ]
            }
        ]
        
    },
    
    {
        "type": "separator" 
    },
    
    {
        "label": "Logout",
        "url": "/logout"
    }
]