Pass details for AAU CUBESAT (orbit 50291)
Observer: ut, Tartu/Ulenurme, Estonia
LAT:58.30 LON:26.73
AOS: 2013/03/11 02:34:37 UTC
LOS: 2013/03/11 02:45:28 UTC
----------------------------------------
 Time                  Az      El   Dop 
----------------------------------------
 2013/03/11 02:34:37  28.74   0.00  1434
 2013/03/11 02:35:09  32.07   1.24  1352
 2013/03/11 02:35:42  35.67   2.46  1258
 2013/03/11 02:36:14  39.57   3.62  1150
 2013/03/11 02:36:47  43.77   4.72  1027
 2013/03/11 02:37:19  48.28   5.73   890
 2013/03/11 02:37:52  53.08   6.62   738
 2013/03/11 02:38:25  58.16   7.36   572
 2013/03/11 02:38:57  63.47   7.91   395
 2013/03/11 02:39:30  68.94   8.26   209
 2013/03/11 02:40:02  74.51   8.39    18
 2013/03/11 02:40:35  80.08   8.28  -174
 2013/03/11 02:41:07  85.58   7.94  -362
 2013/03/11 02:41:40  90.92   7.40  -543
 2013/03/11 02:42:13  96.04   6.67  -712
 2013/03/11 02:42:45 100.89   5.78  -868
 2013/03/11 02:43:18 105.45   4.77 -1010
 2013/03/11 02:43:50 109.69   3.66 -1137
 2013/03/11 02:44:23 113.63   2.48 -1250
 2013/03/11 02:44:55 117.27   1.25 -1348
 2013/03/11 02:45:28 120.63  -0.00 -1434
