Pass details for AAU CUBESAT (orbit 50298)
Observer: ut, Tartu/Ulenurme, Estonia
LAT:58.30 LON:26.73
AOS: 2013/03/11 14:06:00 UTC
LOS: 2013/03/11 14:20:40 UTC
----------------------------------------
 Time                  Az      El   Dop 
----------------------------------------
 2013/03/11 14:06:00 128.45   0.00  2126
 2013/03/11 14:06:44 126.63   2.63  2101
 2013/03/11 14:07:28 124.42   5.49  2064
 2013/03/11 14:08:12 121.67   8.65  2008
 2013/03/11 14:08:56 118.18  12.16  1927
 2013/03/11 14:09:40 113.66  16.11  1808
 2013/03/11 14:10:24 107.63  20.54  1634
 2013/03/11 14:11:08  99.44  25.35  1381
 2013/03/11 14:11:52  88.27  30.16  1023
 2013/03/11 14:12:36  73.55  34.00   549
 2013/03/11 14:13:20  56.11  35.50    -7
 2013/03/11 14:14:04  38.71  33.95  -562
 2013/03/11 14:14:48  24.08  30.08 -1034
 2013/03/11 14:15:32  12.99  25.28 -1390
 2013/03/11 14:16:16   4.87  20.47 -1641
 2013/03/11 14:17:00 358.91  16.06 -1813
 2013/03/11 14:17:44 354.43  12.13 -1931
 2013/03/11 14:18:28 350.99   8.62 -2012
 2013/03/11 14:19:12 348.30   5.47 -2068
 2013/03/11 14:19:56 346.13   2.62 -2105
 2013/03/11 14:20:40 344.37  -0.00 -2130
