[
	{
		"abbreviation" : "ESC5EC",
		"name" : "ES5EC Ground Station",
		"type" : "Ground Station",
		"description" : "ES5EC Ground Station home page",
		"link" : "gs/ES5EC/index.html"
	},
	
	{
		"abbreviation" : "Weather",
		"name" : "Ground station weather information",
		"link" : "gs/ES5EC/weather.html"
	},
	
	{
		"abbreviation" : "Rotator",
		"name" : "Antenna rotator",
		"link" : "gs/ES5EC/rotator.html"
	},
	
	{
		"abbreviation" : "Radio",
		"name" : "Radio",
		"link" : "gs/ES5EC/radio.html"
	},

	{
		"abbreviation" : "TNC",
		"name" : "TNC modem",
		"link" : "gs/ES5EC/tnc.html"
	},
	
	{
		"abbreviation" : "SDR",
		"name" : "Software - defined radio",
		"link" : "gs/ES5EC/sdr.html"
	},
	
	{
		"abbreviation" : "KADI",
		"name" : "KADI interface",
		"link" : "gs/ES5EC/kadi.html"
	},
	
	{
		"abbreviation" : "CAM",
		"name" : "Camera system",
		"link" : "gs/ES5EC/cam.html"
	}
	
]