Pass details for MASAT 1 (orbit 5558)
Observer: ut, Tartu/Ulenurme, Estonia
LAT:58.30 LON:26.73
AOS: 2013/03/11 00:07:30 UTC
LOS: 2013/03/11 00:27:41 UTC
----------------------------------------
 Time                  Az      El   Dop 
----------------------------------------
 2013/03/11 00:07:30 317.91   0.00  1888
 2013/03/11 00:08:30 318.09   3.25  1889
 2013/03/11 00:09:31 318.25   6.81  1884
 2013/03/11 00:10:31 318.38  10.78  1870
 2013/03/11 00:11:32 318.48  15.30  1844
 2013/03/11 00:12:32 318.52  20.60  1799
 2013/03/11 00:13:33 318.48  26.99  1724
 2013/03/11 00:14:34 318.30  34.97  1600
 2013/03/11 00:15:34 317.82  45.25  1394
 2013/03/11 00:16:35 316.51  58.71  1056
 2013/03/11 00:17:35 311.02  75.77   542
 2013/03/11 00:18:36 164.43  83.72  -110
 2013/03/11 00:19:36 146.75  64.86  -735
 2013/03/11 00:20:37 144.55  48.82 -1200
 2013/03/11 00:21:37 143.80  36.39 -1500
 2013/03/11 00:22:38 143.49  26.87 -1685
 2013/03/11 00:23:38 143.36  19.41 -1800
 2013/03/11 00:24:39 143.33  13.35 -1873
 2013/03/11 00:25:40 143.35   8.28 -1919
 2013/03/11 00:26:40 143.40   3.89 -1949
 
 
 
DO NOT CHANGE THE AZIMUTH WHEN ELEVATION IS HIGH (ELEVATION CHANGES)
WHEN ELEVATION IS LOW AGAIN THEN CHANGE THE AZIMUTHS
