{
	"gsID": "ES5EC",
	"componentID": "Radio",
	"componentVersion": "0.0.1",
	"status": "inactive",
	"type": "radio",
	"deviceName": "ICOM 910",
	"chainID": "ROT-KAD-RAD-TNC",
	"comment": "",
	"host": [
			{
			"name": "ut-gs.physic.ut.ee",
			"ip": "193.40.11.18",
			"contact" : {
				"name": "Tõnis Eenmäe",
				"phone": "",
				"email": "tonis.eenmae@estcube.eu"
				}
			}
		],
	"deviceSpecific": {

		"uplink": [
				{
				"frequency": {
					"min": 144.00000,
					"max": 145.99999
					}
				"gain": 100.5
				}
			],
		"downlink": [
				{
				"frequency": {
					"min": 430.00000,
					"max": 439.99999
					}
				"gain": 100.5
				}
			],
		"downlink": [
				{
				"frequency": {
					"min": 1260.00000,
					"max": 1300.00000
					}
				"gain": 100.5
				}
			],
		}
	}