[
	{
		"abbreviation" : "ESTCUBE-1 FS",
		"name" : "ESTCube-1",
		"type": "Satellite",
		"description" : "Satellite EstCube - 1 home page",
		"link" : "satellites/ESTCube-1-FS/index.html"
	},
	
	{
		"abbreviation" : "COM",
		"name" : "Communications System",
		"widgets" : [
			"Log viewer widget",
			"Parameter graph widget",
			"Parameter table widget",
			"Map widget",
			"Videofeed widget"	
		],
		"link" : "satellites/ESTCube-1-FS/com.html"
	},
	
	{
		"abbreviation" : "TCS",
		"name" : "Thermal Control System",
		"widgets" : [
			"Schema widget",
			"Parameter graph widget",
			"Parameter table widget",
			"Log viewer widget"
		],
		"link" : "satellites/ESTCube-1-FS/tcs.html"
	},
	
	{
		"abbreviation" : "CDHS",
		"name" : "Command and Data Handling System",
		"widgets" : [
			"Contact planning widget",
			"Map widget",
			"Parameter table widget",
			"Commanding widget",
			"Firmware upload widget",
			"Log viewer widget"
		],
		"link" : "satellites/ESTCube-1-FS/cdhs.html"
	},
	
	{
		"abbreviation" : "CAM",
		"name" : "Camera system",
		"widgets" : [
			"Map widget",
			"Videofeed widget",
			"Commanding widget",
			"Parameter table widget"
		],
		"link" : "satellites/ESTCube-1-FS/cam.html"
	},
	
	{
		"abbreviation" : "EPS",
		"name" : "Electrical Power System",
		"widgets" : [
			"Schema widget",
			"Parameter table widget",
			"Log viewer widget"
		],
		"link" : "satellites/ESTCube-1-FS/eps.html"
	},
	
	{
		"abbreviation" : "SYS",
		"name" : "Systems Engineering",
		"widgets" : [
			"Commanding widget",
			"Log viewer widget",
			"Contact planning widget",
			"Parameter table widget"
		],
		"link" : "satellites/ESTCube-1-FS/sys.html"
	},
	
	{
		"abbreviation" : "ADCS",
		"name" : "Attitude Determination and Control System",
		"widgets" : [
			"Parameter graph widget",
			"Parameter table widget",
			"Log viewer widget"
		],
		"link" : "satellites/ESTCube-1-FS/adcs.html"
	},
	
	{
		"abbreviation" : "Radio Beacon",
		"name" : "Basic telemetry sending from radio beacon using Morse code",
		"widgets" : [],
		"link" : "satellites/ESTCube-1-FS/beacon.html"
	},
	
	{
		"abbreviation" : "TLE",
		"name" : "Data about the satellite orbit",
		"widgets" : [],
		"link" : "satellites/ESTCube-1-FS/tle.html"
	},
	
	{
		"abbreviation" : "Communication",
		"name" : "Communication system",
		"widgets" : [],
		"link" : "satellites/ESTCube-1-FS/communication.html"
	}
	
]