[

	{
		"abbreviation" : "System information",
		"description" : "Overall information about the system performance",
		"link" : "system/system.html",
		"id" : "systemInfotmation"
	},
	
	{
		"abbreviation" : "System log",
		"description" : "Overall information about the system logs",
		"link" : "system/log.html",
		"id" : "recentLogs"
	},
	
		
	{
		"abbreviation" : "System messages",
		"description" : "Overall information about the system errors",
		"link" : "system/error.html",
		"id" : "recentErrors"
	},
	
	{
		"abbreviation" : "Map view",
		"description" : "Map with the positions and contact ranges of ground stations and positions and orbits of satellites",
		"link" : "system/map.html",
		"id" : "geographicMap"
	},

	
	{
		"abbreviation" : "Contact planning",
		"description" : "Shows a graph of contact times where the x-axis is time and on the y-axis there are the contact times for each satellite.",
		"link" : "system/contact-planning.html",
		"id" : "contactPlanning"
	}

]