[
	{
		"abbreviation" : "ESTCUBE-1",
		"type" : "Satellite",
		"link" : "satellites/ESTCube-1/index.html",
		"id" : "estcube-1"
	},
	
	{
		"abbreviation" : "ESTCUBE-1 FS",
		"type" : "Satellite FS",
		"link" : "satellites/ESTCube-1-FS/index.html",
		"id" : "estcube-1_fs"
	}
	
]