{
	"gsID": "ES5EC",
	"componentID": "Rotator",
	"componentVersion": "0.0.1",
	"status": "inactive",
	"type": "rotator",
	"deviceName": "Yaesu GS-5500",
	"chainID": "ROT-KAD-RAD-TNC",
	"comment": "",
	"host": [
			{
			"name": "ut-gs.physic.ut.ee",
			"ip": "193.40.11.18",
			"contact" : {
				"name": "Tõnis Eenmäe",
				"phone": "",
				"email": "tonis.eenmae@estcube.eu"
				}
			}
		],
	"deviceSpecific": {
		"location": {
			"longitude": 26.72657E,
			"latitude": 58.37337N,
			"height": 80.0,
			},
		"azimuth": {
			"range": {
				"min": 0,
				"max": 450
				},
			"speed": 1
			},
		"elevation": {
			"range": {
				"min": 0,
				"max": 180
				},
			"speed": 1
			}	
		}
	}