Pass details for SAUDICOMSAT 1 (orbit 46164)
Observer: Tartu, 
LAT:58.35 LON:26.71
AOS: 2013/03/18 15:51:28 Local
LOS: 2013/03/18 16:05:43 Local
----------------------------------------------
 Time                  Az      El  Range Footp
----------------------------------------------
 2013/03/18 15:51:28 160.60   0.00  3138  5835
 2013/03/18 15:52:11 160.67   2.74  2848  5833
 2013/03/18 15:52:54 160.74   5.79  2558  5830
 2013/03/18 15:53:36 160.79   9.30  2270  5828
 2013/03/18 15:54:19 160.82  13.44  1985  5826
 2013/03/18 15:55:02 160.81  18.51  1705  5824
 2013/03/18 15:55:44 160.73  25.04  1435  5822
 2013/03/18 15:56:27 160.52  33.89  1181  5820
 2013/03/18 15:57:10 159.96  46.54   958  5818
 2013/03/18 15:57:53 158.05  64.87   793  5816
 2013/03/18 15:58:35  98.65  87.84   726  5814
 2013/03/18 15:59:18 347.04  66.47   783  5812
 2013/03/18 16:00:01 344.90  47.60   942  5810
 2013/03/18 16:00:44 344.31  34.55  1161  5808
 2013/03/18 16:01:26 344.10  25.45  1413  5806
 2013/03/18 16:02:09 344.04  18.77  1683  5804
 2013/03/18 16:02:52 344.05  13.59  1962  5801
 2013/03/18 16:03:34 344.11   9.39  2247  5799
 2013/03/18 16:04:17 344.21   5.84  2535  5796
 2013/03/18 16:05:00 344.32   2.75  2825  5794
 2013/03/18 16:05:43 344.44  -0.00  3115  5791
