Pass details for MASAT 1 (orbit 5571)
Observer: ut, Tartu/Ulenurme, Estonia
LAT:58.30 LON:26.73
AOS: 2013/03/11 21:47:22 UTC
LOS: 2013/03/11 22:07:32 UTC
----------------------------------------
 Time                  Az      El   Dop 
----------------------------------------
 2013/03/11 21:47:22 303.42   0.00  1772
 2013/03/11 21:48:22 305.47   3.14  1755
 2013/03/11 21:49:23 307.85   6.52  1728
 2013/03/11 21:50:23 310.69  10.20  1687
 2013/03/11 21:51:24 314.15  14.25  1626
 2013/03/11 21:52:24 318.49  18.74  1539
 2013/03/11 21:53:25 324.10  23.72  1413
 2013/03/11 21:54:25 331.56  29.13  1233
 2013/03/11 21:55:26 341.75  34.70   981
 2013/03/11 21:56:26 355.58  39.65   644
 2013/03/11 21:57:27  13.17  42.56   231
 2013/03/11 21:58:27  32.36  42.14  -215
 2013/03/11 21:59:28  49.60  38.47  -633
 2013/03/11 22:00:28  63.00  32.95  -979
 2013/03/11 22:01:29  72.83  26.97 -1241
 2013/03/11 22:02:29  80.05  21.27 -1431
 2013/03/11 22:03:30  85.48  16.08 -1565
 2013/03/11 22:04:30  89.68  11.43 -1660
 2013/03/11 22:05:31  93.04   7.25 -1727
 2013/03/11 22:06:31  95.80   3.47 -1774
