-------------------------------------------------------------------------------
Test set: eu.estcube.limichecking.TestInfoContainerWithoutSanityLimits
-------------------------------------------------------------------------------
Tests run: 6, Failures: 0, Errors: 0, Skipped: 0, Time elapsed: 0.046 sec
