{
  "header": [
      {
        "targetID" : "GROUNDSTATION/ES5EC/RADIO",
        "value" : "F ${frequency}"
      },
      {
        "targetID" : "GROUNDSTATION/ES5EC/RADIO",
        "value" : "M ${mode} ${passband}"
      }
    ],
  "body": [
      {
        "targetID" : "GROUNDSTATION/ES5EC/ROTATOR${rot_id}",
        "value" : "P ${azimuth} ${elevation}"
      }
    ],
  "tail": [
      {
        "targetID" : "GROUNDSTATION/ES5EC/ROTATOR",
        "value" : "K"
      }
    ]
}