format 76
"commandautomation"
  revision 5
  modified_by 2 "Oliver"


  
  // class settings
  default_attribute_visibility private default_relation_visibility private default_operation_visibility public
  //class diagram settings
  draw_all_relations yes hide_attributes no hide_operations no hide_getset_operations no show_members_full_definition no show_members_visibility no show_members_stereotype no show_members_context no show_members_multiplicity no show_members_initialization no show_attribute_modifiers no member_max_width 127 show_parameter_dir yes show_parameter_name yes package_name_in_tab no class_drawing_mode natural drawing_language uml show_context_mode no auto_label_position yes show_relation_modifiers no show_relation_visibility no show_infonote no shadow yes show_stereotype_properties no
  //use case diagram settings
  package_name_in_tab no show_context no auto_label_position yes draw_all_relations yes class_drawing_mode actor shadow yes show_stereotype_properties no
  //sequence diagram settings
  show_full_operations_definition no write_horizontally yes class_drawing_mode natural drawing_language uml draw_all_relations yes shadow yes show_stereotype_properties no show_class_context_mode no show_msg_context_mode no
  //collaboration diagram settings
  show_full_operations_definition no show_hierarchical_rank no write_horizontally yes class_drawing_mode natural drawing_language uml package_name_in_tab no show_context no show_msg_context no draw_all_relations yes shadow yes show_stereotype_properties no
  //object diagram settings
   write_horizontally yes package_name_in_tab no show_context no auto_label_position yes draw_all_relations yes shadow yes show_stereotype_properties no
  //component diagram settings
  package_name_in_tab no show_context no auto_label_position yes draw_all_relations yes shadow yes
  draw_component_as_icon no show_component_req_prov no show_component_rea no show_stereotype_properties no
  //deployment diagram settings
  package_name_in_tab no show_context no write_horizontally yes auto_label_position yes draw_all_relations yes shadow yes
  draw_component_as_icon no show_component_req_prov no show_component_rea no show_stereotype_properties no
  //state diagram settings
  package_name_in_tab no show_context no auto_label_position yes write_trans_label_horizontally yes show_trans_definition no draw_all_relations yes shadow yes
  show_activities yes region_horizontally yes drawing_language uml show_stereotype_properties no
  //activity diagram settings
  package_name_in_tab no show_context no show_opaque_action_definition no auto_label_position yes write_flow_label_horizontally no draw_all_relations yes shadow yes
  show_infonote yes drawing_language uml show_stereotype_properties no
  
  class_color yellow duration_color transparent continuation_color gray note_color blue fragment_color transparent subject_color transparent usecase_color yellow package_color transparent component_color green artifact_color green deploymentnode_color gray state_color yellow stateaction_color transparent activity_color transparent activityregion_color transparent activitypartition_color transparent activityaction_color transparent parameterpin_color white 
  font_size 8
  diagram_format A4

  image_root_dir ""

  mark_for_import
  
  classview 134530 "classes"
    //class diagram settings
    draw_all_relations default hide_attributes default hide_operations default hide_getset_operations default show_members_full_definition default show_members_visibility default show_members_stereotype default show_members_context default show_members_multiplicity default show_members_initialization default show_attribute_modifiers default member_max_width 0 show_parameter_dir default show_parameter_name default package_name_in_tab default class_drawing_mode default drawing_language default show_context_mode default auto_label_position default show_relation_modifiers default show_relation_visibility default show_infonote default shadow default show_stereotype_properties default
    //collaboration diagram settings
    show_full_operations_definition default show_hierarchical_rank default write_horizontally default class_drawing_mode default drawing_language default package_name_in_tab default show_context default show_msg_context default draw_all_relations default shadow default show_stereotype_properties default
    //object diagram settings
     write_horizontally default package_name_in_tab default show_context default auto_label_position default draw_all_relations default shadow default show_stereotype_properties default
    //sequence diagram settings
    show_full_operations_definition default write_horizontally default class_drawing_mode default drawing_language default draw_all_relations default shadow default show_stereotype_properties default show_class_context_mode default show_msg_context_mode default
    //state diagram settings
    package_name_in_tab default show_context default auto_label_position default write_trans_label_horizontally default show_trans_definition default draw_all_relations default shadow default
    show_activities default region_horizontally default drawing_language default show_stereotype_properties default
    //class settings
    //activity diagram settings
    package_name_in_tab default show_context default show_opaque_action_definition default auto_label_position default write_flow_label_horizontally default draw_all_relations default shadow default
    show_infonote default drawing_language default show_stereotype_properties default
    classdiagram 147842 "Main"
      draw_all_relations default hide_attributes default hide_operations default hide_getset_operations default show_members_full_definition default show_members_visibility default show_members_stereotype default show_members_context default show_members_multiplicity default show_members_initialization default show_attribute_modifiers default member_max_width 0 show_parameter_dir default show_parameter_name default package_name_in_tab default class_drawing_mode default drawing_language default show_context_mode default auto_label_position default show_relation_modifiers default show_relation_visibility default show_infonote default shadow default show_stereotype_properties default
      size A4
    end

    class 142594 "Automator"
      visibility package 
      cpp_decl ""
      java_decl ""
      php_decl ""
      python_2_2 python_decl ""
      idl_decl ""
      explicit_switch_type ""
      
      ncouples 1
      key "trackingId" value ""
      classrelation 128642 // <directional composition>
	relation 128642 *-->
	  a role_name "" multiplicity "*" private
	    classrelation_ref 128642 // <directional composition>
	  b parent class_ref 142850 // ContactHandler
      end

      operation 128002 "prepare"
	public explicit_return_type ""
	nparams 0
	
	
	
	
	
      end

      operation 128130 "start"
	public explicit_return_type ""
	nparams 0
	
	
	
	
	
      end

      operation 128258 "end"
	public explicit_return_type ""
	nparams 0
	
	
	
	
	
      end

      classrelation 130306 // <directional composition>
	relation 130306 *-->
	  a role_name "" private
	    classrelation_ref 130306 // <directional composition>
	  b parent class_ref 142978 // ContactHandlerFactory
      end
    end

    class 141954 "Config"
      visibility package 
      cpp_decl ""
      java_decl ""
      php_decl ""
      python_2_2 python_decl ""
      idl_decl ""
      explicit_switch_type ""
      
    end

    class 142082 "AosEventProcessor"
      visibility package 
      cpp_decl ""
      java_decl ""
      php_decl ""
      python_2_2 python_decl ""
      idl_decl ""
      explicit_switch_type ""
      
      classrelation 128002 // <generalisation>
	relation 128002 ---|>
	  a public
	    classrelation_ref 128002 // <generalisation>
	  b parent class_ref 142466 // AbstractTrackingEventProcessor
      end

      classrelation 130050 // <directional aggregation>
	relation 130050 o-->
	  a role_name "" private
	    classrelation_ref 130050 // <directional aggregation>
	  b parent class_ref 142594 // Automator
      end
    end

    class 142210 "LosEventProcessor"
      visibility package 
      cpp_decl ""
      java_decl ""
      php_decl ""
      python_2_2 python_decl ""
      idl_decl ""
      explicit_switch_type ""
      
      classrelation 128130 // <generalisation>
	relation 128130 ---|>
	  a public
	    classrelation_ref 128130 // <generalisation>
	  b parent class_ref 142466 // AbstractTrackingEventProcessor
      end

      classrelation 130178 // <directional aggregation>
	relation 130178 o-->
	  a role_name "" private
	    classrelation_ref 130178 // <directional aggregation>
	  b parent class_ref 142594 // Automator
      end
    end

    class 142338 "PrepareEventProcessor"
      visibility package 
      cpp_decl ""
      java_decl ""
      php_decl ""
      python_2_2 python_decl ""
      idl_decl ""
      explicit_switch_type ""
      
      classrelation 128258 // <generalisation>
	relation 128258 ---|>
	  a public
	    classrelation_ref 128258 // <generalisation>
	  b parent class_ref 142466 // AbstractTrackingEventProcessor
      end

      classrelation 129922 // <directional aggregation>
	relation 129922 o-->
	  a role_name "" private
	    classrelation_ref 129922 // <directional aggregation>
	  b parent class_ref 142594 // Automator
      end
    end

    class 142466 "AbstractTrackingEventProcessor"
      visibility package 
      cpp_decl ""
      java_decl ""
      php_decl ""
      python_2_2 python_decl ""
      idl_decl ""
      explicit_switch_type ""
      
    end

    class 142722 "Main"
      visibility package 
      cpp_decl ""
      java_decl ""
      php_decl ""
      python_2_2 python_decl ""
      idl_decl ""
      explicit_switch_type ""
      
      classrelation 128386 // <directional composition>
	relation 128386 *-->
	  a role_name "" multiplicity "1" private
	    classrelation_ref 128386 // <directional composition>
	  b parent class_ref 141954 // Config
      end

      classrelation 128514 // <directional composition>
	relation 128514 *-->
	  a role_name "" multiplicity "1" private
	    classrelation_ref 128514 // <directional composition>
	  b parent class_ref 142594 // Automator
      end

      classrelation 129538 // <directional composition>
	relation 129538 *-->
	  a role_name "" private
	    classrelation_ref 129538 // <directional composition>
	  b parent class_ref 142338 // PrepareEventProcessor
      end

      classrelation 129666 // <directional composition>
	relation 129666 *-->
	  a role_name "" private
	    classrelation_ref 129666 // <directional composition>
	  b parent class_ref 142082 // AosEventProcessor
      end

      classrelation 129794 // <directional composition>
	relation 129794 *-->
	  a role_name "" private
	    classrelation_ref 129794 // <directional composition>
	  b parent class_ref 142210 // LosEventProcessor
      end
    end

    class 142850 "ContactHandler"
      visibility package 
      cpp_decl ""
      java_decl ""
      php_decl ""
      python_2_2 python_decl ""
      idl_decl ""
      explicit_switch_type ""
      
      operation 128770 "setTrackingId"
	public explicit_return_type ""
	nparams 0
	
	
	
	
	
      end

      operation 128898 "getTrackingId"
	public explicit_return_type ""
	nparams 0
	
	
	
	
	
      end

      operation 128386 "prepare"
	public explicit_return_type ""
	nparams 0
	
	
	
	
	
      end

      operation 128514 "start"
	public explicit_return_type ""
	nparams 0
	
	
	
	
	
      end

      operation 128642 "end"
	public explicit_return_type ""
	nparams 0
	
	
	
	
	
      end

      classrelation 130562 // <composition>
	relation 130562 *---
	  a role_name "" multiplicity "*" private
	    classrelation_ref 130562 // <composition>
	  b role_name "" multiplicity "1" private
	    classrelation_ref 130690 // <composition>
      end

      operation 129538 "startCommand"
	public explicit_return_type ""
	nparams 0
	
	
	
	
	
      end

      operation 129666 "endActiveCommand"
	public explicit_return_type ""
	nparams 0
	
	
	
	
	
      end

      operation 129794 "commandEnded"
	public explicit_return_type ""
	nparams 0
	
	
	
	
	
      end
    end

    class 142978 "ContactHandlerFactory"
      visibility package 
      cpp_decl ""
      java_decl ""
      php_decl ""
      python_2_2 python_decl ""
      idl_decl ""
      explicit_switch_type ""
      
      operation 129026 "create"
	public explicit_return_type ""
	nparams 0
	
	
	
	
	
      end
    end

    class 143106 "CommandHandler"
      abstract visibility package 
      cpp_decl ""
      java_decl ""
      php_decl ""
      python_2_2 python_decl ""
      idl_decl ""
      explicit_switch_type ""
      
      operation 129154 "prepare"
	public explicit_return_type ""
	nparams 0
	
	
	
	
	
      end

      operation 129282 "start"
	public explicit_return_type ""
	nparams 0
	
	
	
	
	
      end

      operation 129410 "end"
	public explicit_return_type ""
	nparams 0
	
	
	
	
	
      end

      classrelation 130690 // <composition>
	relation_ref 130562 // <composition>
      end
    end

    class 143234 "ShellCommandHandler"
      visibility package 
      cpp_decl ""
      java_decl ""
      php_decl ""
      python_2_2 python_decl ""
      idl_decl ""
      explicit_switch_type ""
      
      classrelation 130818 // <generalisation>
	relation 130690 ---|>
	  a public
	    classrelation_ref 130818 // <generalisation>
	  b parent class_ref 143106 // CommandHandler
      end
    end

    class 143362 "WebCommandHandler"
      visibility package 
      cpp_decl ""
      java_decl ""
      php_decl ""
      python_2_2 python_decl ""
      idl_decl ""
      explicit_switch_type ""
      
      classrelation 130946 // <generalisation>
	relation 130818 ---|>
	  a public
	    classrelation_ref 130946 // <generalisation>
	  b parent class_ref 143106 // CommandHandler
      end
    end

    class 143490 "AmqCommandHandler"
      visibility package 
      cpp_decl ""
      java_decl ""
      php_decl ""
      python_2_2 python_decl ""
      idl_decl ""
      explicit_switch_type ""
      
      classrelation 131074 // <generalisation>
	relation 130946 ---|>
	  a public
	    classrelation_ref 131074 // <generalisation>
	  b parent class_ref 143106 // CommandHandler
      end
    end
  end

  classview 128002 "command automation"
    //class diagram settings
    draw_all_relations default hide_attributes default hide_operations default hide_getset_operations default show_members_full_definition default show_members_visibility default show_members_stereotype default show_members_context default show_members_multiplicity default show_members_initialization default show_attribute_modifiers default member_max_width 0 show_parameter_dir default show_parameter_name default package_name_in_tab default class_drawing_mode default drawing_language default show_context_mode default auto_label_position default show_relation_modifiers default show_relation_visibility default show_infonote default shadow default show_stereotype_properties default
    //collaboration diagram settings
    show_full_operations_definition default show_hierarchical_rank default write_horizontally default class_drawing_mode default drawing_language default package_name_in_tab default show_context default show_msg_context default draw_all_relations default shadow default show_stereotype_properties default
    //object diagram settings
     write_horizontally default package_name_in_tab default show_context default auto_label_position default draw_all_relations default shadow default show_stereotype_properties default
    //sequence diagram settings
    show_full_operations_definition default write_horizontally default class_drawing_mode default drawing_language default draw_all_relations default shadow default show_stereotype_properties default show_class_context_mode default show_msg_context_mode default
    //state diagram settings
    package_name_in_tab default show_context default auto_label_position default write_trans_label_horizontally default show_trans_definition default draw_all_relations default shadow default
    show_activities default region_horizontally default drawing_language default show_stereotype_properties default
    //class settings
    //activity diagram settings
    package_name_in_tab default show_context default show_opaque_action_definition default auto_label_position default write_flow_label_horizontally default draw_all_relations default shadow default
    show_infonote default drawing_language default show_stereotype_properties default
    sequencediagram 128002 "command automation"
      show_full_operations_definition default write_horizontally default class_drawing_mode default drawing_language default draw_all_relations default shadow default show_stereotype_properties default show_class_context_mode default show_msg_context_mode default
      overlapping_bars size A4
    end

    sequencediagram 134530 "ca 2"
      show_full_operations_definition default write_horizontally default class_drawing_mode default drawing_language default draw_all_relations default shadow default show_stereotype_properties default show_class_context_mode default show_msg_context_mode default
      overlapping_bars size A4
    end

    state 128002 "Flow"
      stereotype "machine"
      statediagram 134658 "Flow"
	package_name_in_tab default show_context default auto_label_position default write_trans_label_horizontally default show_trans_definition default draw_all_relations default shadow default
	show_activities default region_horizontally default drawing_language default show_stereotype_properties default
	size A4
      end

      state 128258 "Acquire lock"
      end

      statediagram 141186 "Flow2"
	package_name_in_tab default show_context default auto_label_position default write_trans_label_horizontally default show_trans_definition default draw_all_relations default shadow default
	show_activities default region_horizontally default drawing_language default show_stereotype_properties default
	size A4
      end

      stateaction 128002
	stereotype "Prepare"
      end

      stateaction 128258
	stereotype "Acquire lock"
      end

      state 128642 "Idle"
	transition 128642 "<transition>"
	  on state_ref 128770 // Preparing
	  external 
	end
      end

      state 128770 "Preparing"
	transition 128770 "<transition>"
	  on stateaction_ref 128386
	  external 
	end
      end

      stateaction 128386
	stereotype "Acquire lock"
	transition 128898 "success"
	  on state_ref 128898 // LockAcquired
	  external 
	end

	transition 129026 "failure"
	  on state_ref 129026 // Lock failed
	  external 
	end
      end

      state 128898 "LockAcquired"
	transition 129282 "<transition>"
	  on stateaction_ref 128514
	  external 
	end
      end

      state 129026 "Lock failed"
	transition 129154 "<transition>"
	  on state_ref 128642 // Idle
	  external 
	end
      end

      state 129154 "AOSReceived"
	transition 129666 "<transition>"
	  on state_ref 129538 // ScriptStarted
	  external 
	end
      end

      state 129282 "LOSReceived"
	transition 130946 "<transition>"
	  on state_ref 128642 // Idle
	  external 
	end
      end

      stateaction 128514
	stereotype "Prepare scripts"
	transition 129410 "<transition>"
	  on state_ref 129410 // Prepared
	  external 
	end
      end

      state 129410 "Prepared"
	transition 129538 "<transition>"
	  on state_ref 129154 // AOSReceived
	  external 
	end
      end

      state 129538 "ScriptStarted"
	transition 129794 "<transition>"
	  on state_ref 129666 // ScriptEnded
	  external 
	end

	transition 130050 "<transition>"
	  on stateaction_ref 128770
	  external 
	end
      end

      state 129666 "ScriptEnded"
	transition 130178 "<transition>"
	  on stateaction_ref 128642
	  external 
	end

	transition 137474 "<transition>"
	  on state_ref 129282 // LOSReceived
	  external 
	end

	transition 137602 "<transition>"
	  on pseudostate_ref 134914 // choice
	  external 
	end
      end

      stateaction 128642
	stereotype "Log script result"
      end

      stateaction 128770
	stereotype "Log script start"
      end

      state 136194 "b"
      end

      pseudostate 134914 choice 
	transition 137730 "<transition>"
	  on state_ref 129538 // ScriptStarted
	  external 
	end

	transition 137858 "<transition>"
	  on state_ref 129282 // LOSReceived
	  external 
	end
      end
    end

    class 128002 "Tracking"
      visibility package 
      cpp_decl ""
      java_decl ""
      php_decl ""
      python_2_2 python_decl ""
      idl_decl ""
      explicit_switch_type ""
      
    end

    class 128130 "CACentral"
      visibility package 
      cpp_decl ""
      java_decl ""
      php_decl ""
      python_2_2 python_decl ""
      idl_decl ""
      explicit_switch_type ""
      
    end

    class 128258 "CAInstance"
      visibility package 
      cpp_decl ""
      java_decl ""
      php_decl ""
      python_2_2 python_decl ""
      idl_decl ""
      explicit_switch_type ""
      
    end

    classinstance 128130 "CA inst 1"
      type class_ref 128258 // CAInstance
      attributes
        end
      relations
        end
    end

    classinstance 128258 "CA inst 2"
      type class_ref 128258 // CAInstance
      attributes
        end
      relations
        end
    end

    class 128386 "Satellite"
      visibility package 
      cpp_decl ""
      java_decl ""
      php_decl ""
      python_2_2 python_decl ""
      idl_decl ""
      explicit_switch_type ""
      
    end

    classinstance 128386 "EstCube"
      type class_ref 128386 // Satellite
      attributes
        end
      relations
        end
    end

    class 128514 "Script"
      visibility package 
      cpp_decl ""
      java_decl ""
      php_decl ""
      python_2_2 python_decl ""
      idl_decl ""
      explicit_switch_type ""
      
    end

    classinstance 128514 "Script"
      type class_ref 128514 // Script
      attributes
        end
      relations
        end
    end

    class 135042 "Automator"
      visibility package 
      cpp_decl ""
      java_decl ""
      php_decl ""
      python_2_2 python_decl ""
      idl_decl ""
      explicit_switch_type ""
      
    end

    class 135170 "CALocker"
      visibility package 
      cpp_decl ""
      java_decl ""
      php_decl ""
      python_2_2 python_decl ""
      idl_decl ""
      explicit_switch_type ""
      
    end

    class 135298 "SDC"
      visibility package 
      cpp_decl ""
      java_decl ""
      php_decl ""
      python_2_2 python_decl ""
      idl_decl ""
      explicit_switch_type ""
      
    end
  end

end
