Pass details for SWISSCUBE (orbit 18368)
Observer: ut, Tartu/Ulenurme, Estonia
LAT:58.30 LON:26.73
AOS: 2013/03/11 13:51:47 UTC
LOS: 2013/03/11 14:03:25 UTC
----------------------------------------
 Time                  Az      El   Dop 
----------------------------------------
 2013/03/11 13:51:47   5.82   0.00  1870
 2013/03/11 13:52:22   4.89   1.78  1801
 2013/03/11 13:52:57   3.54   3.61  1714
 2013/03/11 13:53:32   2.68   5.47  1607
 2013/03/11 13:54:07 358.23   7.35  1473
 2013/03/11 13:54:42 353.12   9.19  1310
 2013/03/11 13:55:16 347.28  10.93  1112
 2013/03/11 13:55:51 340.68  12.48   879
 2013/03/11 13:56:26 333.38  13.72   610
 2013/03/11 13:57:01 325.51  14.52   314
 2013/03/11 13:57:36 317.32  14.80     1
 2013/03/11 13:58:11 309.13  14.52  -311
 2013/03/11 13:58:46 301.26  13.71  -607
 2013/03/11 13:59:21 293.94  12.47  -875
 2013/03/11 13:59:56 287.34  10.93 -1109
 2013/03/11 14:00:31 281.48   9.18 -1306
 2013/03/11 14:01:06 276.36   7.34 -1469
 2013/03/11 14:01:41 271.90   5.47 -1602
 2013/03/11 14:02:15 268.02   3.61 -1709
 2013/03/11 14:02:50 264.64   1.78 -1795
 2013/03/11 14:03:25 261.69  -0.00 -1864
